,Vessel id,Team,Time,Time.1,Volume,Total cell density,Dead cell density,Viability,Live cell density,Titer,Glutamine,Glutamate,Glucose,Lactate,Ammonium,Sodium,Potasium,Calcium,days,sgr [day^-1],doubling time [h],ivcd [cell*day],pcd [pg/cell/day],spec_proc (glu) [nM/cell/day],spec_proc (lac) [nM/cell/day],spec_proc (NH4) [nM/cell/day],spec_proc (Na+) [nM/cell/day],spec_proc (K+) [nM/cell/day],rpm,pH,pO
0,u1,1,2024-06-11 14:21:00,3.99999999994179,400,294000,29400,0.9,264600,4.33,3.76,2.09,5.83,0.18,0.79,119.1,9.22,0.27,0.16666666666424126,0.0,0.0,0.0,0.0,0.0,0.0,0.0,0.0,0.0,80.0,6.8,0.2
1,u1,1,2024-06-12 09:55:00,23.5666666666511,390,799000,17600,0.977972465581978,781400,7.29,3.77,2.28,5.83,0.26,1.48,120.1,9.26,0.28,0.9819444444437958,1.3282196086459688,12.524685093602482,7106504.629645117,0.16660792635818297,10.694427705423903,4.502916928599541,38.837658509171035,56.28646160749425,2.251458464299722,80.0,6.8,0.2
2,u1,1,2024-06-13 09:46:00,47.4166666666861,380,1366400,76400,0.944086651053864,1290000,11.5,3.35,2.44,5.56,0.42,2.77,121.0,9.3,0.28,1.975694444445254,0.5044632097952322,32.97670079883775,16724936.71877454,0.09817077502941395,3.7309558205953075,3.730955820595304,30.08083130354964,20.986626490848717,0.9327389551488475,80.0,6.8,0.2
3,u1,1,2024-06-14 09:52:00,71.5166666666628,375,2000000,0,1.0,2000000,17.2,2.54,2.74,4.96,0.7,4.96,122.0,9.19,0.27,2.97986111111095,0.4366854395221131,38.095001178980894,26154357.638863605,0.08281602744398778,4.358738286525678,4.068155734090627,31.81878949163741,14.529127621752243,-1.5982040383927645,80.0,6.8,0.2
4,u1,1,2024-06-17 09:52:00,143.516666666663,370,6680000,17000,0.997455089820359,6663000,21.4,4.71,4.73,2.39,1.96,14.96,125.6,9.32,0.23,5.979861111110959,0.40114088434015044,41.470548086373725,203039062.50000063,0.007757128015698924,3.675401131247825,2.3271384047096775,18.469352418330775,6.648966870599069,0.24010158143830151,80.0,6.8,0.2
5,u1,1,2024-06-18 09:55:00,164.4,365,5870000,5880,0.998998296422487,5864120,21.9,3.04,5.38,1.25,2.39,17.48,126.9,9.83,0.23,6.8500000000000005,-0.1467781833326546,-113.3379086436593,84023410.05788508,0.0022017673392754535,2.862297541058087,1.8935199117768906,11.096907389948283,5.724595082116229,2.2458026860609617,80.0,6.8,0.2
6,u2,1,2024-06-11 14:24:00,4.05,400,206000,0,1.0,206000,3.9,3.41,2.15,5.89,0.16,0.67,118.1,9.3,0.27,0.16874999999999998,0.0,0.0,0.0,0.0,0.0,0.0,0.0,0.0,0.0,80.0,7.0,0.6
7,u2,1,2024-06-12 09:56:00,23.5833333333333,390,535000,52900,0.901121495327103,482100,6.75,3.09,2.31,5.62,0.35,1.31,118.8,9.26,0.27,0.9826388888888875,1.044706967044092,15.923634912196945,4666974.53703703,0.244269599277429,13.713381012066202,16.284639951828595,54.85352404826476,59.99604192778982,-3.4283452530166265,80.0,7.0,0.6
8,u2,1,2024-06-13 09:46:00,47.4166666666667,380,717500,23500,0.967247386759582,694000,9.14,3.07,2.75,5.19,0.85,2.34,122.2,9.53,0.27,1.9756944444444458,0.36686809419379485,45.344723612435786,9489452.690972248,0.09822484292342273,18.083234680462756,20.54913031870768,42.331208456537816,139.73408616721247,11.09653037210213,80.0,7.0,0.6
9,u2,1,2024-06-14 09:52:00,71.5166666666667,375,799000,5880,0.992640801001252,793120,14.5,3.57,3.0,4.4,1.55,3.74,123.6,9.59,0.27,2.9798611111111124,0.13294862117722092,125.1275281092496,11822087.638888888,0.172287675596307,8.035805764753126,22.500256141308753,45.000512282617514,45.00051228261724,1.9285933835407663,80.0,7.0,0.6
10,u2,1,2024-06-17 09:52:00,143.516666666663,370,958000,70500,0.926409185803758,887500,18.5,5.94,3.64,3.77,2.19,8.13,130.6,10.29,0.28,5.979861111110959,0.037477995692437586,443.8746530086039,39389531.24999799,0.03808118432483445,6.092989491973513,6.092989491973511,41.79409979650581,66.64207256846028,6.664207256846021,80.0,7.0,0.6
11,u2,1,2024-06-18 09:59:00,164.466666666667,365,829000,5880,0.992907117008444,823120,18.7,5.87,3.83,3.71,2.38,10.08,135.8,10.75,0.28,6.852777777777792,-0.08627000280515713,-192.8310164891316,11510304.626738304,0.006429021854738631,6.1075707620017194,6.1075707620017194,62.68296308370185,167.15456822320556,14.786750265898933,80.0,7.0,0.6
12,u3,2,2024-06-11 10:49:00,0.46666666661622,400,317000,5880,0.981451104100946,311120,3.92,3.88,2.17,5.88,0.13,0.65,120.5,9.14,0.28,0.0194444444423425,0.0,0.0,0.0,0.0,0.0,0.0,0.0,0.0,0.0,100.0,7.2,0.4
13,u3,2,2024-06-12 09:58:00,23.6166666666395,390,288000,35300,0.877430555555556,252700,6.93,3.56,2.33,5.59,0.38,1.47,123.2,9.29,0.27,0.9840277777766459,-0.2156119313553011,-77.1549711041985,4532094.791671224,0.2656608158798067,14.121505163046217,22.064851817259694,72.37271396061179,238.30039962640495,13.23891109035569,100.0,7.2,0.4
14,u3,2,2024-06-13 09:50:00,47.4833333332208,380,811000,17600,0.978298397040691,793400,11.2,3.51,2.61,5.09,0.82,2.65,124.7,9.4,0.27,1.9784722222175333,1.1505162506381634,14.45918936321965,8452342.708303101,0.19702229990794193,12.919495075930609,20.302063690748113,54.44644353427904,69.21158076391404,5.075515922687086,100.0,7.2,0.4
15,u3,2,2024-06-14 09:50:00,71.4833333332208,375,1220000,70500,0.942213114754098,1149500,16.3,3.97,3.14,4.25,1.6,4.48,126.7,9.46,0.27,2.9784722222175333,0.3707548361230064,44.869360322840045,15381291.666666666,0.12599722064954452,13.093828812599728,19.270163158165634,45.210767409542456,49.41067476452726,1.48232024293583,100.0,7.2,0.4
16,u3,2,2024-06-17 09:41:00,143.333333333256,370,495000,11800,0.976161616161616,483200,16.5,13.59,3.93,5.64,2.16,12.41,127.5,9.93,0.27,5.972222222219,-0.28948699710470355,-57.46555976544202,38186684.57033121,0.0019640353920190885,7.7579397984754275,5.499299097653468,77.87400329355714,7.856141568076354,4.615483171244864,100.0,7.2,0.4
17,u3,2,2024-06-18 09:41:00,164.166666666667,380,29400,0,1.0,29400,16.4,13.47,4.42,5.9,2.28,14.08,131.4,10.33,0.26,6.840277777777792,-3.2249502400498953,-5.158384190505,3429940.682883158,-0.010787358564142533,52.85805696429765,12.944830276970823,180.14888802117775,420.7069840015535,43.14943425656957,100.0,7.2,0.4
18,u4,2,2024-06-11 10:51:00,0.5,400,147000,5880,0.96,141120,3.83,3.7,2.17,5.9,0.13,0.63,117.9,9.2,0.28,0.020833333333333332,0.0,0.0,0.0,0.0,0.0,0.0,0.0,0.0,0.0,100.0,6.8,0.2
19,u4,2,2024-06-12 10:01:00,23.6666666666667,390,276000,35300,0.872101449275362,240700,6.2,3.31,2.33,5.56,0.39,1.46,119.1,9.24,0.27,0.9861111111111125,0.5531472544201324,30.074328671987747,3071353.0092592635,0.3086587563012286,20.837721944386757,33.86129815962845,108.0956825865062,156.28291458289905,5.209430486096805,100.0,6.8,0.2
20,u4,2,2024-06-13 09:50:00,47.4833333333333,380,676000,35300,0.947781065088757,640700,10.1,3.11,2.66,4.92,0.87,2.69,119.7,9.32,0.27,1.9784722222222209,0.9865460998968311,16.862397342788505,7106670.052083313,0.21402428828873518,18.10974747058529,26.341450866305873,67.4999678449088,32.92681358288281,4.390241811050982,100.0,6.8,0.2
21,u4,2,2024-06-14 09:45:00,71.4,375,1150000,0,1.0,1150000,13.8,3.88,3.05,4.18,1.47,4.39,120.1,9.28,0.27,2.975,0.586994066554522,28.3402052615016,14127151.475694466,0.09952466372424763,10.490437527690954,16.139134657986098,45.727548197627264,10.759423105323835,-1.0759423105324313,100.0,6.8,0.2
22,u4,2,2024-06-17 09:45:00,143.399999999965,370,1680000,0,1.0,1680000,21.5,18.18,3.78,7.33,1.83,14.3,106.2,8.36,0.25,5.974999999998541,0.12634395034673107,131.66861007420687,66328124.99996775,0.0435335689046148,4.127208480567378,2.0353356890469265,56.02826855126399,-78.5865724382007,-5.201413427564367,100.0,6.8,0.2
23,u4,2,2024-06-18 09:45:00,164.233333333333,415,1940000,17600,0.990927835051546,1922400,21.8,15.83,4.14,7.0,1.93,17.07,106.6,8.4,0.25,6.843055555555542,0.15526726505248922,107.14127235908306,24104600.694484565,0.004604930046627922,5.525916055953492,1.5349766822093016,42.51885409719771,6.139906728837085,0.6139906728837357,100.0,6.8,0.2
24,u5,3,2024-06-11 14:10:00,0.650000000023283,400,265000,11800,0.955471698113208,253200,4.4,3.95,2.21,6.1,0.15,0.68,122.8,9.53,0.29,0.027083333334303458,0.0,0.0,0.0,0.0,0.0,0.0,0.0,0.0,0.0,120.0,7.0,0.6
25,u5,3,2024-06-12 13:28:00,23.9500000000116,390,429000,17600,0.958974358974359,411400,7.62,3.74,2.47,5.84,0.43,1.57,125.8,9.7,0.29,0.99791666666715,0.49996870758703427,33.273147060994376,5376798.611108415,0.23954774823423816,19.342364764255272,20.83023897689028,66.21040246225837,223.18113189525295,12.646930807397661,120.0,7.0,0.6
26,u5,3,2024-06-13 10:31:00,45.0,380,782000,47000,0.939897698209719,735000,12.1,3.6,2.83,5.45,0.94,2.77,128.8,9.88,0.3,1.875,0.6616298588058523,25.143261163369278,8169592.708328832,0.21386623083654388,17.185679263650844,24.346378956838706,57.28559754550284,143.21399386375776,8.592839631825496,120.0,7.0,0.6
27,u5,3,2024-06-14 13:20:00,71.8166666665929,370,1140000,23500,0.979385964912281,1116500,18.7,3.68,3.37,4.33,1.82,4.7,132.0,9.96,0.3,2.9923611111080373,0.3741705057667355,44.459763869816,16377953.269630872,0.1531326875043969,12.529038068541567,20.417691667252925,44.77971013386153,74.2461515172831,1.8561537879320855,120.0,7.0,0.6
28,u5,3,2024-06-17 10:17:00,140.766666666605,404,1330000,11800,0.991127819548872,1318200,25.0,15.68,4.47,7.52,2.23,13.88,139.8,9.87,0.29,5.8652777777752085,0.057804801394069155,287.78807179061624,53917403.68924558,0.04323279387551341,7.548583057629322,2.8135627760254747,62.996356790033815,53.5263162268262,-0.6176113410787741,120.0,7.0,0.6
29,u5,3,2024-06-18 09:56:00,164.416666666667,315,911000,129000,0.858397365532382,782000,26.3,14.4,4.19,7.31,2.26,16.24,141.1,10.16,0.29,6.850694444444458,-0.5298953485719473,-31.393995773450303,17418898.36810121,0.030151160475325223,-6.494096102377723,0.6957960109690389,54.73595286289802,30.151160475324815,6.726028106034107,120.0,7.0,0.6
30,u6,3,2024-06-11 14:14:00,0.716666666558012,400,300000,35300,0.882333333333333,264700,4.41,4.62,2.14,5.88,0.18,0.8,118.8,9.37,0.28,0.029861111106583835,0.0,0.0,0.0,0.0,0.0,0.0,0.0,0.0,0.0,120.0,7.2,0.4
31,u6,3,2024-06-12 13:30:00,23.983333333279,390,570000,52900,0.90719298245614,517100,7.89,4.15,2.51,5.5,0.53,1.88,122.0,9.59,0.27,0.9993055555532916,0.6907452758175372,24.083454372886685,6315930.555570301,0.22039507682242215,23.432809892039117,22.166171519496483,68.39847211730343,202.66213960682518,13.933022097969259,120.0,7.2,0.4
32,u6,3,2024-06-13 10:33:00,45.0333333332674,380,623000,41100,0.934028892455859,581900,11.1,3.86,2.94,4.95,1.03,3.12,125.3,9.71,0.28,1.8763888888861417,0.13460788476258062,123.58512551311678,7831805.989579018,0.15984818848497717,21.41268568490349,24.898471726631957,61.74820988204726,164.32991339577077,5.975633214391719,120.0,7.2,0.4
33,u6,3,2024-06-14 13:23:00,71.8666666665813,370,752000,5880,0.99218085106383,746120,15.2,4.81,3.36,4.42,1.6,4.89,127.5,9.97,0.28,2.9944444444408873,0.222339428732945,74.82043301199563,11754667.766195187,0.13254309105022893,13.577584936852718,18.426722414300123,57.219822233879306,71.12068300256198,8.405171627575488,120.0,7.2,0.4
34,u6,3,2024-06-17 10:20:00,140.816666666593,370,429000,5880,0.986293706293706,423120,19.0,6.69,4.08,4.25,2.25,9.85,141.5,11.24,0.31,5.867361111108042,-0.19744067936250886,-84.2558503503485,25893286.684032172,0.054299788866395624,10.288381048369699,9.288121779778196,70.87551388876902,200.05185371829964,18.14756101587432,120.0,7.2,0.4
35,u6,3,2024-06-18 09:58:00,164.45,315,335000,11800,0.964776119402985,323200,18.9,6.59,3.67,4.23,2.31,11.23,144.9,11.67,0.32,6.852083333333333,-0.2735639493359098,-60.810396888267896,5664992.060202841,-0.006531341898946228,-26.778501785679165,3.918805139367685,90.13251820545672,222.06562456416898,28.084770165468367,120.0,7.2,0.4
36,u7,4,2024-06-11 14:15:00,0.733333333279006,400,276000,25300,0.908333333333333,250700,4.1,3.8,2.08,5.94,0.15,0.69,118.5,9.34,0.28,0.030555555553291914,0.0,0.0,0.0,0.0,0.0,0.0,0.0,0.0,0.0,150.0,6.8,0.2
37,u7,4,2024-06-12 13:32:00,24.0166666665464,390,641000,47000,0.926677067082683,594000,6.74,3.5,2.24,5.71,0.37,1.52,119.3,9.38,0.28,1.0006944444394332,0.8891740389758125,18.70897215195372,6828969.328684363,0.15463534087997496,9.37183884121061,12.886278406664578,48.616413988779996,46.85919420605285,2.3429597103027047,150.0,6.8,0.2
38,u7,4,2024-06-13 10:35:00,45.0666666665347,380,893000,82300,0.907838745800672,810700,10.8,3.39,2.4,5.31,0.71,2.77,121.5,9.39,0.28,1.8777777777722793,0.35460570371252004,46.91276017073083,10010316.536452772,0.15817681631085456,6.233569115698691,13.246334370859742,48.69975871639611,85.71157534085727,0.38959806973116057,150.0,6.8,0.2
39,u7,4,2024-06-14 13:29:00,71.966666666558,373,2460000,165000,0.932926829268293,2295000,17.8,3.59,3.0,4.21,1.55,5.11,123.0,9.33,0.27,2.9986111111065834,0.9284074800000738,17.918352331066274,27557695.659746088,0.09652476146202235,8.27355098245906,11.582971375442686,32.26684883159034,20.68387745614765,-0.8273550982459128,150.0,6.8,0.2
40,u7,4,2024-06-17 10:23:00,140.866666666581,408,4420000,11800,0.997330316742082,4408200,31.0,10.9,4.21,5.66,2.27,17.16,129.7,8.97,0.25,5.869444444440876,0.22736729150400808,73.16589920826598,149540129.37504995,0.032924941422589664,3.018119630404053,1.7959058957776182,30.056480616833756,16.711902085708363,-0.8979529478888078,150.0,6.8,0.2
41,u7,4,2024-06-18 09:51:00,164.333333333256,401,3440000,1230000,0.642441860465116,2210000,31.0,7.87,4.47,5.12,2.33,19.46,129.8,9.24,0.25,6.847222222219,-0.7061665166000213,-23.55752070139739,55004595.55557504,0.0,1.928566130312144,0.4450537223797263,17.060392691222834,0.7417562039663784,2.0027417507087635,150.0,6.8,0.2
42,u8,4,2024-06-11 14:17:51,0.780833333206829,400,276000,35300,0.872101449275362,240700,3.64,3.68,2.15,6.13,0.15,0.66,120.5,9.59,0.29,0.03253472221695121,0.0,0.0,0.0,0.0,0.0,0.0,0.0,0.0,0.0,150.0,7.0,0.6
43,u8,4,2024-06-12 13:35:00,24.0666666665347,390,306000,47000,0.84640522875817,259000,6.01,3.3,2.32,5.81,0.38,1.43,122.4,9.68,0.28,1.0027777777722793,0.07552408284805592,220.26791595612082,4040253.790508312,0.23463872547489897,16.830625877946336,22.77084677604505,76.23283485893342,188.1069951064597,8.910331347148048,150.0,7.0,0.6
44,u8,4,2024-06-13 10:38:00,45.1166666666977,380,605000,35300,0.941652892561984,569700,9.27,3.06,2.46,5.46,0.79,2.52,125.1,9.83,0.3,1.879861111112404,0.8987536472559144,18.509557523611168,5905566.53650406,0.2152884049550706,9.245514323223901,27.076149089441397,71.9829329451003,178.3063476621743,9.905908203454194,150.0,7.0,0.6
45,u8,4,2024-06-14 13:33:00,72.0333333332674,373,841000,17600,0.979072532699168,823400,14.6,2.99,2.88,4.42,1.73,4.34,127.0,10.0,0.3,3.0013888888861415,0.3284200446471363,50.65321865878305,12369002.748798035,0.1637480434869189,12.903222938931693,28.87864181570427,55.913966068704006,58.37172281897689,5.2227330943294925,150.0,7.0,0.6
46,u8,4,2024-06-17 10:25:00,140.900000000023,378,811000,41000,0.94944512946979,770000,22.2,5.84,3.29,4.38,2.34,9.54,135.3,10.74,0.33,5.870833333334292,-0.02336744822427468,-711.9105250079161,35529592.6273607,0.0797870110623495,4.304299280995173,6.403957466846473,54.591112832133874,87.13581471282919,7.768735287649824,150.0,7.0,0.6
47,u8,4,2024-06-18 09:54:00,164.383333333244,371,635000,17600,0.972283464566929,617400,22.4,5.37,3.39,4.26,2.35,10.75,135.2,10.94,0.33,6.849305555551833,-0.2257329311598632,-73.69563779623039,10690567.343698857,0.007071654625005402,3.535827312502716,0.35358273125027945,42.78351048128286,-3.5358273125035176,7.071654625005401,150.0,7.0,0.6
